{
    "Evidence_Record": {
        "Items": [
            {
                "Specific_Details": {
                    "D": "Jula",
                    "A": "287",
                    "B": "Batteri RB18L40 18Â V Li-Ion 4Â Ah",
                    "C": "949"
                },
                "Evidence_Qualifiers": {
                    "Qualifier_7": "null",
                    "Qualifier_8": "screwdriver",
                    "Qualifier_5": "null",
                    "Qualifier_6": "null",
                    "Qualifier_9": "null",
                    "Qualifier_2": "null",
                    "Qualifier_1": "null",
                    "Qualifier_4": "null",
                    "Qualifier_3": "null",
                    "Qualifier_10": "null"
                },
                "Evidences": {
                    "Evidence_3": "null",
                    "Evidence_2": "null",
                    "Evidence_1": "287",
                    "Evidence_7": "null",
                    "Evidence_6": "notdeleted",
                    "Evidence_5": "notadded",
                    "Evidence_4": "scanned",
                    "Evidence_8": "null",
                    "Evidence_9": "null",
                    "Evidence_10": "null"
                }
            },
            {
                "Evidence_Qualifiers": {
                    "Qualifier_7": "null",
                    "Qualifier_8": "powertool",
                    "Qualifier_5": "null",
                    "Qualifier_6": "null",
                    "Qualifier_9": "null",
                    "Qualifier_2": "RED",
                    "Qualifier_1": "null",
                    "Qualifier_4": "null",
                    "Qualifier_3": "null",
                    "Qualifier_10": "null"
                },
                "Specific_Details": {
                    "D": "Jula",
                    "A": "285",
                    "B": "Vinkelslip OnePlusa R18AG-0 18A V",
                    "C": "799"
                },
                "Evidences": {
                    "Evidence_3": "miss1",
                    "Evidence_2": "null",
                    "Evidence_1": "285",
                    "Evidence_7": "null",
                    "Evidence_6": "notdeleted",
                    "Evidence_5": "notadded",
                    "Evidence_4": "scanned",
                    "Evidence_8": "null",
                    "Evidence_10": "null",
                    "Evidence_9": "null"
                }
            },
            {
                "Specific_Details": {
                    "D": "Jula",
                    "A": "1096",
                    "B": "Borrhammare ERH650RS 710Â W 1,8Â J",
                    "C": "999"
                },
                "Evidence_Qualifiers": {
                    "Qualifier_7": "null",
                    "Qualifier_8": "spanner",
                    "Qualifier_5": "null",
                    "Qualifier_6": "null",
                    "Qualifier_9": "null",
                    "Qualifier_2": "null",
                    "Qualifier_1": "RED",
                    "Qualifier_4": "null",
                    "Qualifier_3": "null",
                    "Qualifier_10": "null"
                },
                "Evidences": {
                    "Evidence_3": "null",
                    "Evidence_2": "service1",
                    "Evidence_1": "1096",
                    "Evidence_7": "null",
                    "Evidence_6": "notdeleted",
                    "Evidence_5": "notadded",
                    "Evidence_4": "scanned",
                    "Evidence_8": "null",
                    "Evidence_9": "null",
                    "Evidence_10": "null"
                }
            },
            {
                "Specific_Details": {
                    "D": "Jula",
                    "A": "1096",
                    "B": "Borrhammare ERH650RS 710Â W 1,8Â J",
                    "C": "999"
                },
                "Evidence_Qualifiers": {
                    "Qualifier_7": "null",
                    "Qualifier_8": "miscellaneous tool",
                    "Qualifier_5": "null",
                    "Qualifier_6": "null",
                    "Qualifier_9": "null",
                    "Qualifier_2": "null",
                    "Qualifier_1": "RED",
                    "Qualifier_4": "null",
                    "Qualifier_3": "null",
                    "Qualifier_10": "null"
                },
                "Evidences": {
                    "Evidence_3": "null",
                    "Evidence_2": "service123",
                    "Evidence_1": "1096",
                    "Evidence_7": "null",
                    "Evidence_6": "notdeleted",
                    "Evidence_5": "notadded",
                    "Evidence_4": "scanned",
                    "Evidence_8": "null",
                    "Evidence_9": "null",
                    "Evidence_10": "null"
                }
            }  ,
                                  {
                "Specific_Details": {
                    "D": "Jula",
                    "A": "1096",
                    "B": "Borrhammare ERH650RS 710Â W 1,8Â J",
                    "C": "999"
                },
                "Evidence_Qualifiers": {
                    "Qualifier_7": "null",
                    "Qualifier_8": "miscellaneous tool",
                    "Qualifier_5": "null",
                    "Qualifier_6": "null",
                    "Qualifier_9": "null",
                    "Qualifier_2": "null",
                    "Qualifier_1": "RED",
                    "Qualifier_4": "null",
                    "Qualifier_3": "null",
                    "Qualifier_10": "null"
                },
                "Evidences": {
                    "Evidence_3": "null",
                    "Evidence_2": "service123miscellaneous",
                    "Evidence_1": "1096",
                    "Evidence_7": "null",
                    "Evidence_6": "notdeleted",
                    "Evidence_5": "notadded",
                    "Evidence_4": "scanned",
                    "Evidence_8": "null",
                    "Evidence_9": "null",
                    "Evidence_10": "null"
                }
            } 
        ],
        "Context_Type": "Rotating_assets",
        "Capturing_Device_Details": {
            "API": 19,
            "Screen_Size": 2,
            "Screen_Height": 888,
            "Phonemodel": "XT1022",
            "xdpi": 0,
            "Density": 0,
            "ydpi": 0,
            "Device_Id": "f32e69ff0f1791c6",
            "Phonemanufacturer": "motorola",
            "Screen_Width": 540
        },
        "Asset_Zzz": "null",
        "SE_Id": "se_id_123",
        "Asset_Id": "asset_id_123",
        "Asset_Xxx": "null",
        "Evidence_Id": "26-03-15 15:25:31_9.9139039_78.0885456",
        "Asset_Yyy": "null",
        "Time_Location_Details": {
            "LogoutTime": "26-03-15 15:25:31",
            "Evidence_Location": "gps",
            "Evidence_Location_Entries": {
                "Entry2": "78.0885456",
                "Entry3": "null",
                "Entry4": "null",
                "Entry5": "null",
                "Entry1": "9.9139039"
            },
            "LoginTime": "26-03-15 15:25:31",
            "Evidence_Identifier": "toolbox1"
        }
    }
}
